^C:\Users\Mikolaj\source\repos\CudaRaytracer\CudaRaytracer\CudaRaytracer.vcxproj
C:\Users\Mikolaj\source\repos\CudaRaytracer\x64\Debug\CudaRaytracer.lib
C:\Users\Mikolaj\source\repos\CudaRaytracer\x64\Debug\CudaRaytracer.exp
^C:\Users\Mikolaj\source\repos\CudaRaytracer\CudaRaytracer\CudaRaytracer.vcxproj
C:\Users\Mikolaj\source\repos\CudaRaytracer\x64\Debug\CudaRaytracer.lib
C:\Users\Mikolaj\source\repos\CudaRaytracer\x64\Debug\CudaRaytracer.exp
^C:\Users\Mikolaj\source\repos\CudaRaytracer\CudaRaytracer\CudaRaytracer.vcxproj
C:\Users\Mikolaj\source\repos\CudaRaytracer\x64\Debug\CudaRaytracer.lib
C:\Users\Mikolaj\source\repos\CudaRaytracer\x64\Debug\CudaRaytracer.exp
^C:\Users\Mikolaj\source\repos\CudaRaytracer\CudaRaytracer\CudaRaytracer.vcxproj
C:\Users\Mikolaj\source\repos\CudaRaytracer\x64\Debug\CudaRaytracer.lib
C:\Users\Mikolaj\source\repos\CudaRaytracer\x64\Debug\CudaRaytracer.exp
^C:\Users\Mikolaj\source\repos\CudaRaytracer\CudaRaytracer\CudaRaytracer.vcxproj
C:\Users\Mikolaj\source\repos\CudaRaytracer\x64\Debug\CudaRaytracer.lib
C:\Users\Mikolaj\source\repos\CudaRaytracer\x64\Debug\CudaRaytracer.exp
^C:\Users\Mikolaj\source\repos\CudaRaytracer\CudaRaytracer\CudaRaytracer.vcxproj
C:\Users\Mikolaj\source\repos\CudaRaytracer\x64\Debug\CudaRaytracer.lib
C:\Users\Mikolaj\source\repos\CudaRaytracer\x64\Debug\CudaRaytracer.exp
^C:\Users\Mikolaj\source\repos\CudaRaytracer\CudaRaytracer\CudaRaytracer.vcxproj
C:\Users\Mikolaj\source\repos\CudaRaytracer\x64\Debug\CudaRaytracer.lib
C:\Users\Mikolaj\source\repos\CudaRaytracer\x64\Debug\CudaRaytracer.exp
^C:\Users\Mikolaj\source\repos\CudaRaytracer\CudaRaytracer\CudaRaytracer.vcxproj
C:\Users\Mikolaj\source\repos\CudaRaytracer\x64\Debug\CudaRaytracer.lib
C:\Users\Mikolaj\source\repos\CudaRaytracer\x64\Debug\CudaRaytracer.exp
^C:\Users\Mikolaj\source\repos\CudaRaytracer\CudaRaytracer\CudaRaytracer.vcxproj
C:\Users\Mikolaj\source\repos\CudaRaytracer\x64\Debug\CudaRaytracer.lib
C:\Users\Mikolaj\source\repos\CudaRaytracer\x64\Debug\CudaRaytracer.exp
^C:\Users\Mikolaj\source\repos\CudaRaytracer\CudaRaytracer\CudaRaytracer.vcxproj
C:\Users\Mikolaj\source\repos\CudaRaytracer\x64\Debug\CudaRaytracer.lib
C:\Users\Mikolaj\source\repos\CudaRaytracer\x64\Debug\CudaRaytracer.exp
^C:\Users\Mikolaj\source\repos\CudaRaytracer\CudaRaytracer\CudaRaytracer.vcxproj
C:\Users\Mikolaj\source\repos\CudaRaytracer\x64\Debug\CudaRaytracer.lib
C:\Users\Mikolaj\source\repos\CudaRaytracer\x64\Debug\CudaRaytracer.exp
^C:\Users\Mikolaj\source\repos\CudaRaytracer\CudaRaytracer\CudaRaytracer.vcxproj
C:\Users\Mikolaj\source\repos\CudaRaytracer\x64\Debug\CudaRaytracer.lib
C:\Users\Mikolaj\source\repos\CudaRaytracer\x64\Debug\CudaRaytracer.exp
^C:\Users\Mikolaj\source\repos\CudaRaytracer\CudaRaytracer\CudaRaytracer.vcxproj
C:\Users\Mikolaj\source\repos\CudaRaytracer\x64\Debug\CudaRaytracer.lib
C:\Users\Mikolaj\source\repos\CudaRaytracer\x64\Debug\CudaRaytracer.exp
^C:\Users\Mikolaj\source\repos\CudaRaytracer\CudaRaytracer\CudaRaytracer.vcxproj
C:\Users\Mikolaj\source\repos\CudaRaytracer\x64\Debug\CudaRaytracer.lib
C:\Users\Mikolaj\source\repos\CudaRaytracer\x64\Debug\CudaRaytracer.exp
^C:\Users\Mikolaj\source\repos\CudaRaytracer\CudaRaytracer\CudaRaytracer.vcxproj
C:\Users\Mikolaj\source\repos\CudaRaytracer\x64\Debug\CudaRaytracer.lib
C:\Users\Mikolaj\source\repos\CudaRaytracer\x64\Debug\CudaRaytracer.exp
^C:\Users\Mikolaj\source\repos\CudaRaytracer\CudaRaytracer\CudaRaytracer.vcxproj
C:\Users\Mikolaj\source\repos\CudaRaytracer\x64\Debug\CudaRaytracer.lib
C:\Users\Mikolaj\source\repos\CudaRaytracer\x64\Debug\CudaRaytracer.exp
^C:\Users\Mikolaj\source\repos\CudaRaytracer\CudaRaytracer\CudaRaytracer.vcxproj
C:\Users\Mikolaj\source\repos\CudaRaytracer\x64\Debug\CudaRaytracer.lib
C:\Users\Mikolaj\source\repos\CudaRaytracer\x64\Debug\CudaRaytracer.exp
^C:\Users\Mikolaj\source\repos\CudaRaytracer\CudaRaytracer\CudaRaytracer.vcxproj
C:\Users\Mikolaj\source\repos\CudaRaytracer\x64\Debug\CudaRaytracer.lib
C:\Users\Mikolaj\source\repos\CudaRaytracer\x64\Debug\CudaRaytracer.exp
^C:\Users\Mikolaj\source\repos\CudaRaytracer\CudaRaytracer\CudaRaytracer.vcxproj
C:\Users\Mikolaj\source\repos\CudaRaytracer\x64\Debug\CudaRaytracer.lib
C:\Users\Mikolaj\source\repos\CudaRaytracer\x64\Debug\CudaRaytracer.exp
^C:\Users\Mikolaj\source\repos\CudaRaytracer\CudaRaytracer\CudaRaytracer.vcxproj
C:\Users\Mikolaj\source\repos\CudaRaytracer\x64\Debug\CudaRaytracer.lib
C:\Users\Mikolaj\source\repos\CudaRaytracer\x64\Debug\CudaRaytracer.exp
^C:\Users\Mikolaj\source\repos\CudaRaytracer\CudaRaytracer\CudaRaytracer.vcxproj
C:\Users\Mikolaj\source\repos\CudaRaytracer\x64\Debug\CudaRaytracer.lib
C:\Users\Mikolaj\source\repos\CudaRaytracer\x64\Debug\CudaRaytracer.exp
^C:\Users\Mikolaj\source\repos\CudaRaytracer\CudaRaytracer\CudaRaytracer.vcxproj
C:\Users\Mikolaj\source\repos\CudaRaytracer\x64\Debug\CudaRaytracer.lib
C:\Users\Mikolaj\source\repos\CudaRaytracer\x64\Debug\CudaRaytracer.exp
^C:\Users\Mikolaj\source\repos\CudaRaytracer\CudaRaytracer\CudaRaytracer.vcxproj
C:\Users\Mikolaj\source\repos\CudaRaytracer\x64\Debug\CudaRaytracer.lib
C:\Users\Mikolaj\source\repos\CudaRaytracer\x64\Debug\CudaRaytracer.exp
^C:\Users\Mikolaj\source\repos\CudaRaytracer\CudaRaytracer\CudaRaytracer.vcxproj
C:\Users\Mikolaj\source\repos\CudaRaytracer\x64\Debug\CudaRaytracer.lib
C:\Users\Mikolaj\source\repos\CudaRaytracer\x64\Debug\CudaRaytracer.exp
^C:\Users\Mikolaj\source\repos\CudaRaytracer\CudaRaytracer\CudaRaytracer.vcxproj
C:\Users\Mikolaj\source\repos\CudaRaytracer\x64\Debug\CudaRaytracer.lib
C:\Users\Mikolaj\source\repos\CudaRaytracer\x64\Debug\CudaRaytracer.exp
^C:\Users\Mikolaj\source\repos\CudaRaytracer\CudaRaytracer\CudaRaytracer.vcxproj
C:\Users\Mikolaj\source\repos\CudaRaytracer\x64\Debug\CudaRaytracer.lib
C:\Users\Mikolaj\source\repos\CudaRaytracer\x64\Debug\CudaRaytracer.exp
^C:\Users\Mikolaj\source\repos\CudaRaytracer\CudaRaytracer\CudaRaytracer.vcxproj
C:\Users\Mikolaj\source\repos\CudaRaytracer\x64\Debug\CudaRaytracer.lib
C:\Users\Mikolaj\source\repos\CudaRaytracer\x64\Debug\CudaRaytracer.exp
^C:\Users\Mikolaj\source\repos\CudaRaytracer\CudaRaytracer\CudaRaytracer.vcxproj
C:\Users\Mikolaj\source\repos\CudaRaytracer\x64\Debug\CudaRaytracer.lib
C:\Users\Mikolaj\source\repos\CudaRaytracer\x64\Debug\CudaRaytracer.exp
^C:\Users\Mikolaj\source\repos\CudaRaytracer\CudaRaytracer\CudaRaytracer.vcxproj
C:\Users\Mikolaj\source\repos\CudaRaytracer\x64\Debug\CudaRaytracer.lib
C:\Users\Mikolaj\source\repos\CudaRaytracer\x64\Debug\CudaRaytracer.exp
^C:\Users\Mikolaj\source\repos\CudaRaytracer\CudaRaytracer\CudaRaytracer.vcxproj
C:\Users\Mikolaj\source\repos\CudaRaytracer\x64\Debug\CudaRaytracer.lib
C:\Users\Mikolaj\source\repos\CudaRaytracer\x64\Debug\CudaRaytracer.exp
^C:\Users\Mikolaj\source\repos\CudaRaytracer\CudaRaytracer\CudaRaytracer.vcxproj
C:\Users\Mikolaj\source\repos\CudaRaytracer\x64\Debug\CudaRaytracer.lib
C:\Users\Mikolaj\source\repos\CudaRaytracer\x64\Debug\CudaRaytracer.exp
^C:\Users\Mikolaj\source\repos\CudaRaytracer\CudaRaytracer\CudaRaytracer.vcxproj
C:\Users\Mikolaj\source\repos\CudaRaytracer\x64\Debug\CudaRaytracer.lib
C:\Users\Mikolaj\source\repos\CudaRaytracer\x64\Debug\CudaRaytracer.exp
^C:\Users\Mikolaj\source\repos\CudaRaytracer\CudaRaytracer\CudaRaytracer.vcxproj
C:\Users\Mikolaj\source\repos\CudaRaytracer\x64\Debug\CudaRaytracer.lib
C:\Users\Mikolaj\source\repos\CudaRaytracer\x64\Debug\CudaRaytracer.exp
^C:\Users\Mikolaj\source\repos\CudaRaytracer\CudaRaytracer\CudaRaytracer.vcxproj
C:\Users\Mikolaj\source\repos\CudaRaytracer\x64\Debug\CudaRaytracer.lib
C:\Users\Mikolaj\source\repos\CudaRaytracer\x64\Debug\CudaRaytracer.exp
^C:\Users\Mikolaj\source\repos\CudaRaytracer\CudaRaytracer\CudaRaytracer.vcxproj
C:\Users\Mikolaj\source\repos\CudaRaytracer\x64\Debug\CudaRaytracer.lib
C:\Users\Mikolaj\source\repos\CudaRaytracer\x64\Debug\CudaRaytracer.exp
^C:\Users\Mikolaj\source\repos\CudaRaytracer\CudaRaytracer\CudaRaytracer.vcxproj
C:\Users\Mikolaj\source\repos\CudaRaytracer\x64\Debug\CudaRaytracer.lib
C:\Users\Mikolaj\source\repos\CudaRaytracer\x64\Debug\CudaRaytracer.exp
^C:\Users\Mikolaj\source\repos\CudaRaytracer\CudaRaytracer\CudaRaytracer.vcxproj
C:\Users\Mikolaj\source\repos\CudaRaytracer\x64\Debug\CudaRaytracer.lib
C:\Users\Mikolaj\source\repos\CudaRaytracer\x64\Debug\CudaRaytracer.exp
^C:\Users\Mikolaj\source\repos\CudaRaytracer\CudaRaytracer\CudaRaytracer.vcxproj
C:\Users\Mikolaj\source\repos\CudaRaytracer\x64\Debug\CudaRaytracer.lib
C:\Users\Mikolaj\source\repos\CudaRaytracer\x64\Debug\CudaRaytracer.exp
^C:\Users\Mikolaj\source\repos\CudaRaytracer\CudaRaytracer\CudaRaytracer.vcxproj
C:\Users\Mikolaj\source\repos\CudaRaytracer\x64\Debug\CudaRaytracer.lib
C:\Users\Mikolaj\source\repos\CudaRaytracer\x64\Debug\CudaRaytracer.exp
^C:\Users\Mikolaj\source\repos\CudaRaytracer\CudaRaytracer\CudaRaytracer.vcxproj
C:\Users\Mikolaj\source\repos\CudaRaytracer\x64\Debug\CudaRaytracer.lib
C:\Users\Mikolaj\source\repos\CudaRaytracer\x64\Debug\CudaRaytracer.exp
^C:\Users\Mikolaj\source\repos\CudaRaytracer\CudaRaytracer\CudaRaytracer.vcxproj
C:\Users\Mikolaj\source\repos\CudaRaytracer\x64\Debug\CudaRaytracer.lib
C:\Users\Mikolaj\source\repos\CudaRaytracer\x64\Debug\CudaRaytracer.exp
^C:\Users\Mikolaj\source\repos\CudaRaytracer\CudaRaytracer\CudaRaytracer.vcxproj
C:\Users\Mikolaj\source\repos\CudaRaytracer\x64\Debug\CudaRaytracer.lib
C:\Users\Mikolaj\source\repos\CudaRaytracer\x64\Debug\CudaRaytracer.exp
^C:\Users\Mikolaj\source\repos\CudaRaytracer\CudaRaytracer\CudaRaytracer.vcxproj
C:\Users\Mikolaj\source\repos\CudaRaytracer\x64\Debug\CudaRaytracer.lib
C:\Users\Mikolaj\source\repos\CudaRaytracer\x64\Debug\CudaRaytracer.exp
^C:\Users\Mikolaj\source\repos\CudaRaytracer\CudaRaytracer\CudaRaytracer.vcxproj
C:\Users\Mikolaj\source\repos\CudaRaytracer\x64\Debug\CudaRaytracer.lib
C:\Users\Mikolaj\source\repos\CudaRaytracer\x64\Debug\CudaRaytracer.exp
^C:\Users\Mikolaj\source\repos\CudaRaytracer\CudaRaytracer\CudaRaytracer.vcxproj
C:\Users\Mikolaj\source\repos\CudaRaytracer\x64\Debug\CudaRaytracer.lib
C:\Users\Mikolaj\source\repos\CudaRaytracer\x64\Debug\CudaRaytracer.exp
^C:\Users\Mikolaj\source\repos\CudaRaytracer\CudaRaytracer\CudaRaytracer.vcxproj
C:\Users\Mikolaj\source\repos\CudaRaytracer\x64\Debug\CudaRaytracer.lib
C:\Users\Mikolaj\source\repos\CudaRaytracer\x64\Debug\CudaRaytracer.exp
^C:\Users\Mikolaj\source\repos\CudaRaytracer\CudaRaytracer\CudaRaytracer.vcxproj
C:\Users\Mikolaj\source\repos\CudaRaytracer\x64\Debug\CudaRaytracer.lib
C:\Users\Mikolaj\source\repos\CudaRaytracer\x64\Debug\CudaRaytracer.exp
^C:\Users\Mikolaj\source\repos\CudaRaytracer\CudaRaytracer\CudaRaytracer.vcxproj
C:\Users\Mikolaj\source\repos\CudaRaytracer\x64\Debug\CudaRaytracer.lib
C:\Users\Mikolaj\source\repos\CudaRaytracer\x64\Debug\CudaRaytracer.exp
^C:\Users\Mikolaj\source\repos\CudaRaytracer\CudaRaytracer\CudaRaytracer.vcxproj
C:\Users\Mikolaj\source\repos\CudaRaytracer\x64\Debug\CudaRaytracer.lib
C:\Users\Mikolaj\source\repos\CudaRaytracer\x64\Debug\CudaRaytracer.exp
^C:\Users\Mikolaj\source\repos\CudaRaytracer\CudaRaytracer\CudaRaytracer.vcxproj
C:\Users\Mikolaj\source\repos\CudaRaytracer\x64\Debug\CudaRaytracer.lib
C:\Users\Mikolaj\source\repos\CudaRaytracer\x64\Debug\CudaRaytracer.exp
^C:\Users\Mikolaj\source\repos\CudaRaytracer\CudaRaytracer\CudaRaytracer.vcxproj
C:\Users\Mikolaj\source\repos\CudaRaytracer\x64\Debug\CudaRaytracer.lib
C:\Users\Mikolaj\source\repos\CudaRaytracer\x64\Debug\CudaRaytracer.exp
^C:\Users\Mikolaj\source\repos\CudaRaytracer\CudaRaytracer\CudaRaytracer.vcxproj
C:\Users\Mikolaj\source\repos\CudaRaytracer\x64\Debug\CudaRaytracer.lib
C:\Users\Mikolaj\source\repos\CudaRaytracer\x64\Debug\CudaRaytracer.exp
^C:\Users\Mikolaj\source\repos\CudaRaytracer\CudaRaytracer\CudaRaytracer.vcxproj
C:\Users\Mikolaj\source\repos\CudaRaytracer\x64\Debug\CudaRaytracer.lib
C:\Users\Mikolaj\source\repos\CudaRaytracer\x64\Debug\CudaRaytracer.exp
^C:\Users\Mikolaj\source\repos\CudaRaytracer\CudaRaytracer\CudaRaytracer.vcxproj
C:\Users\Mikolaj\source\repos\CudaRaytracer\x64\Debug\CudaRaytracer.lib
C:\Users\Mikolaj\source\repos\CudaRaytracer\x64\Debug\CudaRaytracer.exp
^C:\Users\Mikolaj\source\repos\CudaRaytracer\CudaRaytracer\CudaRaytracer.vcxproj
C:\Users\Mikolaj\source\repos\CudaRaytracer\x64\Debug\CudaRaytracer.lib
C:\Users\Mikolaj\source\repos\CudaRaytracer\x64\Debug\CudaRaytracer.exp
^C:\Users\Mikolaj\source\repos\CudaRaytracer\CudaRaytracer\CudaRaytracer.vcxproj
C:\Users\Mikolaj\source\repos\CudaRaytracer\x64\Debug\CudaRaytracer.lib
C:\Users\Mikolaj\source\repos\CudaRaytracer\x64\Debug\CudaRaytracer.exp
^C:\Users\Mikolaj\source\repos\CudaRaytracer\CudaRaytracer\CudaRaytracer.vcxproj
C:\Users\Mikolaj\source\repos\CudaRaytracer\x64\Debug\CudaRaytracer.lib
C:\Users\Mikolaj\source\repos\CudaRaytracer\x64\Debug\CudaRaytracer.exp
^C:\Users\Mikolaj\source\repos\CudaRaytracer\CudaRaytracer\CudaRaytracer.vcxproj
C:\Users\Mikolaj\source\repos\CudaRaytracer\x64\Debug\CudaRaytracer.lib
C:\Users\Mikolaj\source\repos\CudaRaytracer\x64\Debug\CudaRaytracer.exp
^C:\Users\Mikolaj\source\repos\CudaRaytracer\CudaRaytracer\CudaRaytracer.vcxproj
C:\Users\Mikolaj\source\repos\CudaRaytracer\x64\Debug\CudaRaytracer.lib
C:\Users\Mikolaj\source\repos\CudaRaytracer\x64\Debug\CudaRaytracer.exp
^C:\Users\Mikolaj\source\repos\CudaRaytracer\CudaRaytracer\CudaRaytracer.vcxproj
C:\Users\Mikolaj\source\repos\CudaRaytracer\x64\Debug\CudaRaytracer.lib
C:\Users\Mikolaj\source\repos\CudaRaytracer\x64\Debug\CudaRaytracer.exp
^C:\Users\Mikolaj\source\repos\CudaRaytracer\CudaRaytracer\CudaRaytracer.vcxproj
C:\Users\Mikolaj\source\repos\CudaRaytracer\x64\Debug\CudaRaytracer.lib
C:\Users\Mikolaj\source\repos\CudaRaytracer\x64\Debug\CudaRaytracer.exp
^C:\Users\Mikolaj\source\repos\CudaRaytracer\CudaRaytracer\CudaRaytracer.vcxproj
C:\Users\Mikolaj\source\repos\CudaRaytracer\x64\Debug\CudaRaytracer.lib
C:\Users\Mikolaj\source\repos\CudaRaytracer\x64\Debug\CudaRaytracer.exp
^C:\Users\Mikolaj\source\repos\CudaRaytracer\CudaRaytracer\CudaRaytracer.vcxproj
C:\Users\Mikolaj\source\repos\CudaRaytracer\x64\Debug\CudaRaytracer.lib
C:\Users\Mikolaj\source\repos\CudaRaytracer\x64\Debug\CudaRaytracer.exp
^C:\Users\Mikolaj\source\repos\CudaRaytracer\CudaRaytracer\CudaRaytracer.vcxproj
C:\Users\Mikolaj\source\repos\CudaRaytracer\x64\Debug\CudaRaytracer.lib
C:\Users\Mikolaj\source\repos\CudaRaytracer\x64\Debug\CudaRaytracer.exp
^C:\Users\Mikolaj\source\repos\CudaRaytracer\CudaRaytracer\CudaRaytracer.vcxproj
C:\Users\Mikolaj\source\repos\CudaRaytracer\x64\Debug\CudaRaytracer.lib
C:\Users\Mikolaj\source\repos\CudaRaytracer\x64\Debug\CudaRaytracer.exp
^C:\Users\Mikolaj\source\repos\CudaRaytracer\CudaRaytracer\CudaRaytracer.vcxproj
C:\Users\Mikolaj\source\repos\CudaRaytracer\x64\Debug\CudaRaytracer.lib
C:\Users\Mikolaj\source\repos\CudaRaytracer\x64\Debug\CudaRaytracer.exp
^C:\Users\Mikolaj\source\repos\CudaRaytracer\CudaRaytracer\CudaRaytracer.vcxproj
C:\Users\Mikolaj\source\repos\CudaRaytracer\x64\Debug\CudaRaytracer.lib
C:\Users\Mikolaj\source\repos\CudaRaytracer\x64\Debug\CudaRaytracer.exp
^C:\Users\Mikolaj\source\repos\CudaRaytracer\CudaRaytracer\CudaRaytracer.vcxproj
C:\Users\Mikolaj\source\repos\CudaRaytracer\x64\Debug\CudaRaytracer.lib
C:\Users\Mikolaj\source\repos\CudaRaytracer\x64\Debug\CudaRaytracer.exp
^C:\Users\Mikolaj\source\repos\CudaRaytracer\CudaRaytracer\CudaRaytracer.vcxproj
C:\Users\Mikolaj\source\repos\CudaRaytracer\x64\Debug\CudaRaytracer.lib
C:\Users\Mikolaj\source\repos\CudaRaytracer\x64\Debug\CudaRaytracer.exp
^C:\Users\Mikolaj\source\repos\CudaRaytracer\CudaRaytracer\CudaRaytracer.vcxproj
C:\Users\Mikolaj\source\repos\CudaRaytracer\x64\Debug\CudaRaytracer.lib
C:\Users\Mikolaj\source\repos\CudaRaytracer\x64\Debug\CudaRaytracer.exp
^C:\Users\Mikolaj\source\repos\CudaRaytracer\CudaRaytracer\CudaRaytracer.vcxproj
C:\Users\Mikolaj\source\repos\CudaRaytracer\x64\Debug\CudaRaytracer.lib
C:\Users\Mikolaj\source\repos\CudaRaytracer\x64\Debug\CudaRaytracer.exp
^C:\Users\Mikolaj\source\repos\CudaRaytracer\CudaRaytracer\CudaRaytracer.vcxproj
C:\Users\Mikolaj\source\repos\CudaRaytracer\x64\Debug\CudaRaytracer.lib
C:\Users\Mikolaj\source\repos\CudaRaytracer\x64\Debug\CudaRaytracer.exp
^C:\Users\Mikolaj\source\repos\CudaRaytracer\CudaRaytracer\CudaRaytracer.vcxproj
C:\Users\Mikolaj\source\repos\CudaRaytracer\x64\Debug\CudaRaytracer.lib
C:\Users\Mikolaj\source\repos\CudaRaytracer\x64\Debug\CudaRaytracer.exp
^C:\Users\Mikolaj\source\repos\CudaRaytracer\CudaRaytracer\CudaRaytracer.vcxproj
C:\Users\Mikolaj\source\repos\CudaRaytracer\x64\Debug\CudaRaytracer.lib
C:\Users\Mikolaj\source\repos\CudaRaytracer\x64\Debug\CudaRaytracer.exp
^C:\Users\Mikolaj\source\repos\CudaRaytracer\CudaRaytracer\CudaRaytracer.vcxproj
C:\Users\Mikolaj\source\repos\CudaRaytracer\x64\Debug\CudaRaytracer.lib
C:\Users\Mikolaj\source\repos\CudaRaytracer\x64\Debug\CudaRaytracer.exp
^C:\Users\Mikolaj\source\repos\CudaRaytracer\CudaRaytracer\CudaRaytracer.vcxproj
C:\Users\Mikolaj\source\repos\CudaRaytracer\x64\Debug\CudaRaytracer.lib
C:\Users\Mikolaj\source\repos\CudaRaytracer\x64\Debug\CudaRaytracer.exp
^C:\Users\Mikolaj\source\repos\CudaRaytracer\CudaRaytracer\CudaRaytracer.vcxproj
C:\Users\Mikolaj\source\repos\CudaRaytracer\x64\Debug\CudaRaytracer.lib
C:\Users\Mikolaj\source\repos\CudaRaytracer\x64\Debug\CudaRaytracer.exp
^C:\Users\Mikolaj\source\repos\CudaRaytracer\CudaRaytracer\CudaRaytracer.vcxproj
C:\Users\Mikolaj\source\repos\CudaRaytracer\x64\Debug\CudaRaytracer.lib
C:\Users\Mikolaj\source\repos\CudaRaytracer\x64\Debug\CudaRaytracer.exp
^C:\Users\Mikolaj\source\repos\CudaRaytracer\CudaRaytracer\CudaRaytracer.vcxproj
C:\Users\Mikolaj\source\repos\CudaRaytracer\x64\Debug\CudaRaytracer.lib
C:\Users\Mikolaj\source\repos\CudaRaytracer\x64\Debug\CudaRaytracer.exp
^C:\Users\Mikolaj\source\repos\CudaRaytracer\CudaRaytracer\CudaRaytracer.vcxproj
C:\Users\Mikolaj\source\repos\CudaRaytracer\x64\Debug\CudaRaytracer.lib
C:\Users\Mikolaj\source\repos\CudaRaytracer\x64\Debug\CudaRaytracer.exp
^C:\Users\Mikolaj\source\repos\CudaRaytracer\CudaRaytracer\CudaRaytracer.vcxproj
C:\Users\Mikolaj\source\repos\CudaRaytracer\x64\Debug\CudaRaytracer.lib
C:\Users\Mikolaj\source\repos\CudaRaytracer\x64\Debug\CudaRaytracer.exp
^C:\Users\Mikolaj\source\repos\CudaRaytracer\CudaRaytracer\CudaRaytracer.vcxproj
C:\Users\Mikolaj\source\repos\CudaRaytracer\x64\Debug\CudaRaytracer.lib
C:\Users\Mikolaj\source\repos\CudaRaytracer\x64\Debug\CudaRaytracer.exp
^C:\Users\Mikolaj\source\repos\CudaRaytracer\CudaRaytracer\CudaRaytracer.vcxproj
C:\Users\Mikolaj\source\repos\CudaRaytracer\x64\Debug\CudaRaytracer.lib
C:\Users\Mikolaj\source\repos\CudaRaytracer\x64\Debug\CudaRaytracer.exp
^C:\Users\Mikolaj\source\repos\CudaRaytracer\CudaRaytracer\CudaRaytracer.vcxproj
C:\Users\Mikolaj\source\repos\CudaRaytracer\x64\Debug\CudaRaytracer.lib
C:\Users\Mikolaj\source\repos\CudaRaytracer\x64\Debug\CudaRaytracer.exp
^C:\Users\Mikolaj\source\repos\CudaRaytracer\CudaRaytracer\CudaRaytracer.vcxproj
C:\Users\Mikolaj\source\repos\CudaRaytracer\x64\Debug\CudaRaytracer.lib
C:\Users\Mikolaj\source\repos\CudaRaytracer\x64\Debug\CudaRaytracer.exp
^C:\Users\Mikolaj\source\repos\CudaRaytracer\CudaRaytracer\CudaRaytracer.vcxproj
C:\Users\Mikolaj\source\repos\CudaRaytracer\x64\Debug\CudaRaytracer.lib
C:\Users\Mikolaj\source\repos\CudaRaytracer\x64\Debug\CudaRaytracer.exp
^C:\Users\Mikolaj\source\repos\CudaRaytracer\CudaRaytracer\CudaRaytracer.vcxproj
C:\Users\Mikolaj\source\repos\CudaRaytracer\x64\Debug\CudaRaytracer.lib
C:\Users\Mikolaj\source\repos\CudaRaytracer\x64\Debug\CudaRaytracer.exp
^C:\Users\Mikolaj\source\repos\CudaRaytracer\CudaRaytracer\CudaRaytracer.vcxproj
C:\Users\Mikolaj\source\repos\CudaRaytracer\x64\Debug\CudaRaytracer.lib
C:\Users\Mikolaj\source\repos\CudaRaytracer\x64\Debug\CudaRaytracer.exp
^C:\Users\Mikolaj\source\repos\CudaRaytracer\CudaRaytracer\CudaRaytracer.vcxproj
C:\Users\Mikolaj\source\repos\CudaRaytracer\x64\Debug\CudaRaytracer.lib
C:\Users\Mikolaj\source\repos\CudaRaytracer\x64\Debug\CudaRaytracer.exp
^C:\Users\Mikolaj\source\repos\CudaRaytracer\CudaRaytracer\CudaRaytracer.vcxproj
C:\Users\Mikolaj\source\repos\CudaRaytracer\x64\Debug\CudaRaytracer.lib
C:\Users\Mikolaj\source\repos\CudaRaytracer\x64\Debug\CudaRaytracer.exp
^C:\Users\Mikolaj\source\repos\CudaRaytracer\CudaRaytracer\CudaRaytracer.vcxproj
C:\Users\Mikolaj\source\repos\CudaRaytracer\x64\Debug\CudaRaytracer.lib
C:\Users\Mikolaj\source\repos\CudaRaytracer\x64\Debug\CudaRaytracer.exp
^C:\Users\Mikolaj\source\repos\CudaRaytracer\CudaRaytracer\CudaRaytracer.vcxproj
C:\Users\Mikolaj\source\repos\CudaRaytracer\x64\Debug\CudaRaytracer.lib
C:\Users\Mikolaj\source\repos\CudaRaytracer\x64\Debug\CudaRaytracer.exp
^C:\Users\Mikolaj\source\repos\CudaRaytracer\CudaRaytracer\CudaRaytracer.vcxproj
C:\Users\Mikolaj\source\repos\CudaRaytracer\x64\Debug\CudaRaytracer.lib
C:\Users\Mikolaj\source\repos\CudaRaytracer\x64\Debug\CudaRaytracer.exp
^C:\Users\Mikolaj\source\repos\CudaRaytracer\CudaRaytracer\CudaRaytracer.vcxproj
C:\Users\Mikolaj\source\repos\CudaRaytracer\x64\Debug\CudaRaytracer.lib
C:\Users\Mikolaj\source\repos\CudaRaytracer\x64\Debug\CudaRaytracer.exp
^C:\Users\Mikolaj\source\repos\CudaRaytracer\CudaRaytracer\CudaRaytracer.vcxproj
C:\Users\Mikolaj\source\repos\CudaRaytracer\x64\Debug\CudaRaytracer.lib
C:\Users\Mikolaj\source\repos\CudaRaytracer\x64\Debug\CudaRaytracer.exp
^C:\Users\Mikolaj\source\repos\CudaRaytracer\CudaRaytracer\CudaRaytracer.vcxproj
C:\Users\Mikolaj\source\repos\CudaRaytracer\x64\Debug\CudaRaytracer.lib
C:\Users\Mikolaj\source\repos\CudaRaytracer\x64\Debug\CudaRaytracer.exp
^C:\Users\Mikolaj\source\repos\CudaRaytracer\CudaRaytracer\CudaRaytracer.vcxproj
C:\Users\Mikolaj\source\repos\CudaRaytracer\x64\Debug\CudaRaytracer.lib
C:\Users\Mikolaj\source\repos\CudaRaytracer\x64\Debug\CudaRaytracer.exp
^C:\Users\Mikolaj\source\repos\CudaRaytracer\CudaRaytracer\CudaRaytracer.vcxproj
C:\Users\Mikolaj\source\repos\CudaRaytracer\x64\Debug\CudaRaytracer.lib
C:\Users\Mikolaj\source\repos\CudaRaytracer\x64\Debug\CudaRaytracer.exp
^C:\Users\Mikolaj\source\repos\CudaRaytracer\CudaRaytracer\CudaRaytracer.vcxproj
C:\Users\Mikolaj\source\repos\CudaRaytracer\x64\Debug\CudaRaytracer.lib
C:\Users\Mikolaj\source\repos\CudaRaytracer\x64\Debug\CudaRaytracer.exp
^C:\Users\Mikolaj\source\repos\CudaRaytracer\CudaRaytracer\CudaRaytracer.vcxproj
C:\Users\Mikolaj\source\repos\CudaRaytracer\x64\Debug\CudaRaytracer.lib
C:\Users\Mikolaj\source\repos\CudaRaytracer\x64\Debug\CudaRaytracer.exp
^C:\Users\Mikolaj\source\repos\CudaRaytracer\CudaRaytracer\CudaRaytracer.vcxproj
C:\Users\Mikolaj\source\repos\CudaRaytracer\x64\Debug\CudaRaytracer.lib
C:\Users\Mikolaj\source\repos\CudaRaytracer\x64\Debug\CudaRaytracer.exp
^C:\Users\Mikolaj\source\repos\CudaRaytracer\CudaRaytracer\CudaRaytracer.vcxproj
C:\Users\Mikolaj\source\repos\CudaRaytracer\x64\Debug\CudaRaytracer.lib
C:\Users\Mikolaj\source\repos\CudaRaytracer\x64\Debug\CudaRaytracer.exp
^C:\Users\Mikolaj\source\repos\CudaRaytracer\CudaRaytracer\CudaRaytracer.vcxproj
C:\Users\Mikolaj\source\repos\CudaRaytracer\x64\Debug\CudaRaytracer.lib
C:\Users\Mikolaj\source\repos\CudaRaytracer\x64\Debug\CudaRaytracer.exp
^C:\Users\Mikolaj\source\repos\CudaRaytracer\CudaRaytracer\CudaRaytracer.vcxproj
C:\Users\Mikolaj\source\repos\CudaRaytracer\x64\Debug\CudaRaytracer.lib
C:\Users\Mikolaj\source\repos\CudaRaytracer\x64\Debug\CudaRaytracer.exp
^C:\Users\Mikolaj\source\repos\CudaRaytracer\CudaRaytracer\CudaRaytracer.vcxproj
C:\Users\Mikolaj\source\repos\CudaRaytracer\x64\Debug\CudaRaytracer.lib
C:\Users\Mikolaj\source\repos\CudaRaytracer\x64\Debug\CudaRaytracer.exp
^C:\Users\Mikolaj\source\repos\CudaRaytracer\CudaRaytracer\CudaRaytracer.vcxproj
C:\Users\Mikolaj\source\repos\CudaRaytracer\x64\Debug\CudaRaytracer.lib
C:\Users\Mikolaj\source\repos\CudaRaytracer\x64\Debug\CudaRaytracer.exp
^C:\Users\Mikolaj\source\repos\CudaRaytracer\CudaRaytracer\CudaRaytracer.vcxproj
C:\Users\Mikolaj\source\repos\CudaRaytracer\x64\Debug\CudaRaytracer.lib
C:\Users\Mikolaj\source\repos\CudaRaytracer\x64\Debug\CudaRaytracer.exp
^C:\Users\Mikolaj\source\repos\CudaRaytracer\CudaRaytracer\CudaRaytracer.vcxproj
C:\Users\Mikolaj\source\repos\CudaRaytracer\x64\Debug\CudaRaytracer.lib
C:\Users\Mikolaj\source\repos\CudaRaytracer\x64\Debug\CudaRaytracer.exp
^C:\Users\Mikolaj\source\repos\CudaRaytracer\CudaRaytracer\CudaRaytracer.vcxproj
C:\Users\Mikolaj\source\repos\CudaRaytracer\x64\Debug\CudaRaytracer.lib
C:\Users\Mikolaj\source\repos\CudaRaytracer\x64\Debug\CudaRaytracer.exp
^C:\Users\Mikolaj\source\repos\CudaRaytracer\CudaRaytracer\CudaRaytracer.vcxproj
C:\Users\Mikolaj\source\repos\CudaRaytracer\x64\Debug\CudaRaytracer.lib
C:\Users\Mikolaj\source\repos\CudaRaytracer\x64\Debug\CudaRaytracer.exp
^C:\Users\Mikolaj\source\repos\CudaRaytracer\CudaRaytracer\CudaRaytracer.vcxproj
C:\Users\Mikolaj\source\repos\CudaRaytracer\x64\Debug\CudaRaytracer.lib
C:\Users\Mikolaj\source\repos\CudaRaytracer\x64\Debug\CudaRaytracer.exp
^C:\Users\Mikolaj\source\repos\CudaRaytracer\CudaRaytracer\CudaRaytracer.vcxproj
C:\Users\Mikolaj\source\repos\CudaRaytracer\x64\Debug\CudaRaytracer.lib
C:\Users\Mikolaj\source\repos\CudaRaytracer\x64\Debug\CudaRaytracer.exp
^C:\Users\Mikolaj\source\repos\CudaRaytracer\CudaRaytracer\CudaRaytracer.vcxproj
C:\Users\Mikolaj\source\repos\CudaRaytracer\x64\Debug\CudaRaytracer.lib
C:\Users\Mikolaj\source\repos\CudaRaytracer\x64\Debug\CudaRaytracer.exp
^C:\Users\Mikolaj\source\repos\CudaRaytracer\CudaRaytracer\CudaRaytracer.vcxproj
C:\Users\Mikolaj\source\repos\CudaRaytracer\x64\Debug\CudaRaytracer.lib
C:\Users\Mikolaj\source\repos\CudaRaytracer\x64\Debug\CudaRaytracer.exp
^C:\Users\Mikolaj\source\repos\CudaRaytracer\CudaRaytracer\CudaRaytracer.vcxproj
C:\Users\Mikolaj\source\repos\CudaRaytracer\x64\Debug\CudaRaytracer.lib
C:\Users\Mikolaj\source\repos\CudaRaytracer\x64\Debug\CudaRaytracer.exp
^C:\Users\Mikolaj\source\repos\CudaRaytracer\CudaRaytracer\CudaRaytracer.vcxproj
C:\Users\Mikolaj\source\repos\CudaRaytracer\x64\Debug\CudaRaytracer.lib
C:\Users\Mikolaj\source\repos\CudaRaytracer\x64\Debug\CudaRaytracer.exp
^C:\Users\Mikolaj\source\repos\CudaRaytracer\CudaRaytracer\CudaRaytracer.vcxproj
C:\Users\Mikolaj\source\repos\CudaRaytracer\x64\Debug\CudaRaytracer.lib
C:\Users\Mikolaj\source\repos\CudaRaytracer\x64\Debug\CudaRaytracer.exp
^C:\Users\Mikolaj\source\repos\CudaRaytracer\CudaRaytracer\CudaRaytracer.vcxproj
C:\Users\Mikolaj\source\repos\CudaRaytracer\x64\Debug\CudaRaytracer.lib
C:\Users\Mikolaj\source\repos\CudaRaytracer\x64\Debug\CudaRaytracer.exp
^C:\Users\Mikolaj\source\repos\CudaRaytracer\CudaRaytracer\CudaRaytracer.vcxproj
C:\Users\Mikolaj\source\repos\CudaRaytracer\x64\Debug\CudaRaytracer.lib
C:\Users\Mikolaj\source\repos\CudaRaytracer\x64\Debug\CudaRaytracer.exp
^C:\Users\Mikolaj\source\repos\CudaRaytracer\CudaRaytracer\CudaRaytracer.vcxproj
C:\Users\Mikolaj\source\repos\CudaRaytracer\x64\Debug\CudaRaytracer.lib
C:\Users\Mikolaj\source\repos\CudaRaytracer\x64\Debug\CudaRaytracer.exp
^C:\Users\Mikolaj\source\repos\CudaRaytracer\CudaRaytracer\CudaRaytracer.vcxproj
C:\Users\Mikolaj\source\repos\CudaRaytracer\x64\Debug\CudaRaytracer.lib
C:\Users\Mikolaj\source\repos\CudaRaytracer\x64\Debug\CudaRaytracer.exp
^C:\Users\Mikolaj\source\repos\CudaRaytracer\CudaRaytracer\CudaRaytracer.vcxproj
C:\Users\Mikolaj\source\repos\CudaRaytracer\x64\Debug\CudaRaytracer.lib
C:\Users\Mikolaj\source\repos\CudaRaytracer\x64\Debug\CudaRaytracer.exp
^C:\Users\Mikolaj\source\repos\CudaRaytracer\CudaRaytracer\CudaRaytracer.vcxproj
C:\Users\Mikolaj\source\repos\CudaRaytracer\x64\Debug\CudaRaytracer.lib
C:\Users\Mikolaj\source\repos\CudaRaytracer\x64\Debug\CudaRaytracer.exp
^C:\Users\Mikolaj\source\repos\CudaRaytracer\CudaRaytracer\CudaRaytracer.vcxproj
C:\Users\Mikolaj\source\repos\CudaRaytracer\x64\Debug\CudaRaytracer.lib
C:\Users\Mikolaj\source\repos\CudaRaytracer\x64\Debug\CudaRaytracer.exp
^C:\Users\Mikolaj\source\repos\CudaRaytracer\CudaRaytracer\CudaRaytracer.vcxproj
C:\Users\Mikolaj\source\repos\CudaRaytracer\x64\Debug\CudaRaytracer.lib
C:\Users\Mikolaj\source\repos\CudaRaytracer\x64\Debug\CudaRaytracer.exp
^C:\Users\Mikolaj\source\repos\CudaRaytracer\CudaRaytracer\CudaRaytracer.vcxproj
C:\Users\Mikolaj\source\repos\CudaRaytracer\x64\Debug\CudaRaytracer.lib
C:\Users\Mikolaj\source\repos\CudaRaytracer\x64\Debug\CudaRaytracer.exp
^C:\Users\Mikolaj\source\repos\CudaRaytracer\CudaRaytracer\CudaRaytracer.vcxproj
C:\Users\Mikolaj\source\repos\CudaRaytracer\x64\Debug\CudaRaytracer.lib
C:\Users\Mikolaj\source\repos\CudaRaytracer\x64\Debug\CudaRaytracer.exp
^C:\Users\Mikolaj\source\repos\CudaRaytracer\CudaRaytracer\CudaRaytracer.vcxproj
C:\Users\Mikolaj\source\repos\CudaRaytracer\x64\Debug\CudaRaytracer.lib
C:\Users\Mikolaj\source\repos\CudaRaytracer\x64\Debug\CudaRaytracer.exp
^C:\Users\Mikolaj\source\repos\CudaRaytracer\CudaRaytracer\CudaRaytracer.vcxproj
C:\Users\Mikolaj\source\repos\CudaRaytracer\x64\Debug\CudaRaytracer.lib
C:\Users\Mikolaj\source\repos\CudaRaytracer\x64\Debug\CudaRaytracer.exp
^C:\Users\Mikolaj\source\repos\CudaRaytracer\CudaRaytracer\CudaRaytracer.vcxproj
C:\Users\Mikolaj\source\repos\CudaRaytracer\x64\Debug\CudaRaytracer.lib
C:\Users\Mikolaj\source\repos\CudaRaytracer\x64\Debug\CudaRaytracer.exp
^C:\Users\Mikolaj\source\repos\CudaRaytracer\CudaRaytracer\CudaRaytracer.vcxproj
C:\Users\Mikolaj\source\repos\CudaRaytracer\x64\Debug\CudaRaytracer.lib
C:\Users\Mikolaj\source\repos\CudaRaytracer\x64\Debug\CudaRaytracer.exp
^C:\Users\Mikolaj\source\repos\CudaRaytracer\CudaRaytracer\CudaRaytracer.vcxproj
C:\Users\Mikolaj\source\repos\CudaRaytracer\x64\Debug\CudaRaytracer.lib
C:\Users\Mikolaj\source\repos\CudaRaytracer\x64\Debug\CudaRaytracer.exp
^C:\Users\Mikolaj\source\repos\CudaRaytracer\CudaRaytracer\CudaRaytracer.vcxproj
C:\Users\Mikolaj\source\repos\CudaRaytracer\x64\Debug\CudaRaytracer.lib
C:\Users\Mikolaj\source\repos\CudaRaytracer\x64\Debug\CudaRaytracer.exp
^C:\Users\Mikolaj\source\repos\CudaRaytracer\CudaRaytracer\CudaRaytracer.vcxproj
C:\Users\Mikolaj\source\repos\CudaRaytracer\x64\Debug\CudaRaytracer.lib
C:\Users\Mikolaj\source\repos\CudaRaytracer\x64\Debug\CudaRaytracer.exp
^C:\Users\Mikolaj\source\repos\CudaRaytracer\CudaRaytracer\CudaRaytracer.vcxproj
C:\Users\Mikolaj\source\repos\CudaRaytracer\x64\Debug\CudaRaytracer.lib
C:\Users\Mikolaj\source\repos\CudaRaytracer\x64\Debug\CudaRaytracer.exp
^C:\Users\Mikolaj\source\repos\CudaRaytracer\CudaRaytracer\CudaRaytracer.vcxproj
C:\Users\Mikolaj\source\repos\CudaRaytracer\x64\Debug\CudaRaytracer.lib
C:\Users\Mikolaj\source\repos\CudaRaytracer\x64\Debug\CudaRaytracer.exp
^C:\Users\Mikolaj\source\repos\CudaRaytracer\CudaRaytracer\CudaRaytracer.vcxproj
C:\Users\Mikolaj\source\repos\CudaRaytracer\x64\Debug\CudaRaytracer.lib
C:\Users\Mikolaj\source\repos\CudaRaytracer\x64\Debug\CudaRaytracer.exp
^C:\Users\Mikolaj\source\repos\CudaRaytracer\CudaRaytracer\CudaRaytracer.vcxproj
C:\Users\Mikolaj\source\repos\CudaRaytracer\x64\Debug\CudaRaytracer.lib
C:\Users\Mikolaj\source\repos\CudaRaytracer\x64\Debug\CudaRaytracer.exp
^C:\Users\Mikolaj\source\repos\CudaRaytracer\CudaRaytracer\CudaRaytracer.vcxproj
C:\Users\Mikolaj\source\repos\CudaRaytracer\x64\Debug\CudaRaytracer.lib
C:\Users\Mikolaj\source\repos\CudaRaytracer\x64\Debug\CudaRaytracer.exp
^C:\Users\Mikolaj\source\repos\CudaRaytracer\CudaRaytracer\CudaRaytracer.vcxproj
C:\Users\Mikolaj\source\repos\CudaRaytracer\x64\Debug\CudaRaytracer.lib
C:\Users\Mikolaj\source\repos\CudaRaytracer\x64\Debug\CudaRaytracer.exp
^C:\Users\Mikolaj\source\repos\CudaRaytracer\CudaRaytracer\CudaRaytracer.vcxproj
C:\Users\Mikolaj\source\repos\CudaRaytracer\x64\Debug\CudaRaytracer.lib
C:\Users\Mikolaj\source\repos\CudaRaytracer\x64\Debug\CudaRaytracer.exp
^C:\Users\Mikolaj\source\repos\CudaRaytracer\CudaRaytracer\CudaRaytracer.vcxproj
C:\Users\Mikolaj\source\repos\CudaRaytracer\x64\Debug\CudaRaytracer.lib
C:\Users\Mikolaj\source\repos\CudaRaytracer\x64\Debug\CudaRaytracer.exp
^C:\Users\Mikolaj\source\repos\CudaRaytracer\CudaRaytracer\CudaRaytracer.vcxproj
C:\Users\Mikolaj\source\repos\CudaRaytracer\x64\Debug\CudaRaytracer.lib
C:\Users\Mikolaj\source\repos\CudaRaytracer\x64\Debug\CudaRaytracer.exp
^C:\Users\Mikolaj\source\repos\CudaRaytracer\CudaRaytracer\CudaRaytracer.vcxproj
C:\Users\Mikolaj\source\repos\CudaRaytracer\x64\Debug\CudaRaytracer.lib
C:\Users\Mikolaj\source\repos\CudaRaytracer\x64\Debug\CudaRaytracer.exp
^C:\Users\Mikolaj\source\repos\CudaRaytracer\CudaRaytracer\CudaRaytracer.vcxproj
C:\Users\Mikolaj\source\repos\CudaRaytracer\x64\Debug\CudaRaytracer.lib
C:\Users\Mikolaj\source\repos\CudaRaytracer\x64\Debug\CudaRaytracer.exp
^C:\Users\Mikolaj\source\repos\CudaRaytracer\CudaRaytracer\CudaRaytracer.vcxproj
C:\Users\Mikolaj\source\repos\CudaRaytracer\x64\Debug\CudaRaytracer.lib
C:\Users\Mikolaj\source\repos\CudaRaytracer\x64\Debug\CudaRaytracer.exp
^C:\Users\Mikolaj\source\repos\CudaRaytracer\CudaRaytracer\CudaRaytracer.vcxproj
C:\Users\Mikolaj\source\repos\CudaRaytracer\x64\Debug\CudaRaytracer.lib
C:\Users\Mikolaj\source\repos\CudaRaytracer\x64\Debug\CudaRaytracer.exp
^C:\Users\Mikolaj\source\repos\CudaRaytracer\CudaRaytracer\CudaRaytracer.vcxproj
C:\Users\Mikolaj\source\repos\CudaRaytracer\x64\Debug\CudaRaytracer.lib
C:\Users\Mikolaj\source\repos\CudaRaytracer\x64\Debug\CudaRaytracer.exp
^C:\Users\Mikolaj\source\repos\CudaRaytracer\CudaRaytracer\CudaRaytracer.vcxproj
C:\Users\Mikolaj\source\repos\CudaRaytracer\x64\Debug\CudaRaytracer.lib
C:\Users\Mikolaj\source\repos\CudaRaytracer\x64\Debug\CudaRaytracer.exp
^C:\Users\Mikolaj\source\repos\CudaRaytracer\CudaRaytracer\CudaRaytracer.vcxproj
C:\Users\Mikolaj\source\repos\CudaRaytracer\x64\Debug\CudaRaytracer.lib
C:\Users\Mikolaj\source\repos\CudaRaytracer\x64\Debug\CudaRaytracer.exp
^C:\Users\Mikolaj\source\repos\CudaRaytracer\CudaRaytracer\CudaRaytracer.vcxproj
C:\Users\Mikolaj\source\repos\CudaRaytracer\x64\Debug\CudaRaytracer.lib
C:\Users\Mikolaj\source\repos\CudaRaytracer\x64\Debug\CudaRaytracer.exp
^C:\Users\Mikolaj\source\repos\CudaRaytracer\CudaRaytracer\CudaRaytracer.vcxproj
C:\Users\Mikolaj\source\repos\CudaRaytracer\x64\Debug\CudaRaytracer.lib
C:\Users\Mikolaj\source\repos\CudaRaytracer\x64\Debug\CudaRaytracer.exp
^C:\Users\Mikolaj\source\repos\CudaRaytracer\CudaRaytracer\CudaRaytracer.vcxproj
C:\Users\Mikolaj\source\repos\CudaRaytracer\x64\Debug\CudaRaytracer.lib
C:\Users\Mikolaj\source\repos\CudaRaytracer\x64\Debug\CudaRaytracer.exp
^C:\Users\Mikolaj\source\repos\CudaRaytracer\CudaRaytracer\CudaRaytracer.vcxproj
C:\Users\Mikolaj\source\repos\CudaRaytracer\x64\Debug\CudaRaytracer.lib
C:\Users\Mikolaj\source\repos\CudaRaytracer\x64\Debug\CudaRaytracer.exp
^C:\Users\Mikolaj\source\repos\CudaRaytracer\CudaRaytracer\CudaRaytracer.vcxproj
C:\Users\Mikolaj\source\repos\CudaRaytracer\x64\Debug\CudaRaytracer.lib
C:\Users\Mikolaj\source\repos\CudaRaytracer\x64\Debug\CudaRaytracer.exp
^C:\Users\Mikolaj\source\repos\CudaRaytracer\CudaRaytracer\CudaRaytracer.vcxproj
C:\Users\Mikolaj\source\repos\CudaRaytracer\x64\Debug\CudaRaytracer.lib
C:\Users\Mikolaj\source\repos\CudaRaytracer\x64\Debug\CudaRaytracer.exp
