^C:\USERS\MIKOLAJ\SOURCE\REPOS\CUDARAYTRACER\CUDARAYTRACER\X64\DEBUG\KERNEL.CU.OBJ
C:\USERS\MIKOLAJ\SOURCE\REPOS\CUDARAYTRACER\X64\DEBUG\CUDARAYTRACER.EXE
C:\USERS\MIKOLAJ\SOURCE\REPOS\CUDARAYTRACER\CUDARAYTRACER\X64\DEBUG\CUDARAYTRACER.ILK
C:\USERS\MIKOLAJ\SOURCE\REPOS\CUDARAYTRACER\X64\DEBUG\CUDARAYTRACER.PDB
